module gitlab.com/cinc-project/upstream/chef-workstation/components/main-cinc-wrapper

go 1.13

require (
	github.com/chef/go-libs v0.4.0
	github.com/mitchellh/go-homedir v1.1.0
	github.com/pkg/errors v0.9.1 // indirect
)
